HTML_Report
…
2026-05-03

Exploration

This section covers exploration of the data used in the regression
analysis section below. Outputs entered in the app include country and
outcome.

Outcome Plot

Outcome: Jobs to Nationals

Country: Overall

## # A tibble: 45 × 3
##    age_decade variable          values
##    <chr>      <chr>              <int>
##  1 20         Agree_Strongly      2645
##  2 20         Agree               2427
##  3 20         Neither             1299
##  4 20         Disagree            1204
##  5 20         Disagree_Strongly    721
##  6 30s        Agree_Strongly      3080
##  7 30s        Agree               2569
##  8 30s        Neither             1396
##  9 30s        Disagree            1401
## 10 30s        Disagree_Strongly    831
## # ℹ 35 more rows
…
